[
  "\"\"",
  "#",
  "$",
  "''",
  ",",
  "-LRB-",
  "-RRB-",
  ".",
  ":",
  "ADD",
  "AFX",
  "BES",
  "CC",
  "CD",
  "DT",
  "EX",
  "FW",
  "GW",
  "HVS",
  "HYPH",
  "IN",
  "JJ",
  "JJR",
  "JJS",
  "LS",
  "MD",
  "NFP",
  "NIL",
  "NN",
  "NNP",
  "NNPS",
  "NNS",
  "PDT",
  "PRP",
  "PRP$",
  "RB",
  "RBR",
  "RBS",
  "RP",
  "SP",
  "TO",
  "UH",
  "VB",
  "VBD",
  "VBG",
  "VBN",
  "VBP",
  "VBZ",
  "WDT",
  "WP",
  "WP$",
  "WRB",
  "XX",
  "_SP",
  "``",
  "this",
  "that",
  "those",
  "these",
  "This",
  "That",
  "Those",
  "These",
  "if",
  "as",
  "because",
  "of",
  "for",
  "before",
  "in",
  "while",
  "after",
  "since",
  "like",
  "with",
  "so",
  "to",
  "by",
  "on",
  "about",
  "than",
  "whether",
  "although",
  "from",
  "though",
  "until",
  "unless",
  "once",
  "without",
  "at",
  "into",
  "cause",
  "over",
  "upon",
  "till",
  "whereas",
  "beyond",
  "whilst",
  "except",
  "despite",
  "wether",
  "then",
  "but",
  "becuse",
  "whie",
  "below",
  "against",
  "it",
  "w/out",
  "toward",
  "albeit",
  "save",
  "besides",
  "becouse",
  "coz",
  "til",
  "ask",
  "i'd",
  "out",
  "near",
  "seince",
  "towards",
  "tho",
  "sice",
  "will",
  "If",
  "As",
  "Because",
  "Of",
  "For",
  "Before",
  "In",
  "While",
  "After",
  "Since",
  "Like",
  "With",
  "So",
  "To",
  "By",
  "On",
  "About",
  "Than",
  "Whether",
  "Although",
  "From",
  "Though",
  "Until",
  "Unless",
  "Once",
  "Without",
  "At",
  "Into",
  "Cause",
  "Over",
  "Upon",
  "Till",
  "Whereas",
  "Beyond",
  "Whilst",
  "Except",
  "Despite",
  "Wether",
  "Then",
  "But",
  "Becuse",
  "Whie",
  "Below",
  "Against",
  "It",
  "W/Out",
  "Toward",
  "Albeit",
  "Save",
  "Besides",
  "Becouse",
  "Coz",
  "Til",
  "Ask",
  "I'D",
  "Out",
  "Near",
  "Seince",
  "Towards",
  "Tho",
  "Sice",
  "Will",
  "something",
  "anyone",
  "anything",
  "nothing",
  "someone",
  "everything",
  "everyone",
  "everybody",
  "nobody",
  "somebody",
  "anybody",
  "any1",
  "Something",
  "Anyone",
  "Anything",
  "Nothing",
  "Someone",
  "Everything",
  "Everyone",
  "Everybody",
  "Nobody",
  "Somebody",
  "Anybody",
  "Any1",
  "I",
  "-PRON-",
  "me",
  "you",
  "he",
  "him",
  "she",
  "her",
  "we",
  "us",
  "they",
  "them",
  "mine",
  "his",
  "hers",
  "its",
  "ours",
  "yours",
  "theirs",
  "myself",
  "yourself",
  "himself",
  "herself",
  "itself",
  "themself",
  "ourselves",
  "yourselves",
  "themselves",
  "Me",
  "You",
  "He",
  "Him",
  "She",
  "Her",
  "We",
  "Us",
  "They",
  "Them",
  "Mine",
  "His",
  "Hers",
  "Its",
  "Ours",
  "Yours",
  "Theirs",
  "Myself",
  "Yourself",
  "Himself",
  "Herself",
  "Itself",
  "Themself",
  "Ourselves",
  "Yourselves",
  "Themselves",
  "my",
  "your",
  "our",
  "their",
  "My",
  "Your",
  "Our",
  "Their",
  "not",
  "n't",
  "nt",
  "n\u2019t",
  "Not",
  "N'T",
  "Nt",
  "N\u2019T",
  "be",
  "have",
  "do",
  "get",
  "am",
  "are",
  "'ve",
  "Be",
  "Have",
  "Do",
  "Get",
  "Am",
  "Are",
  "'Ve",
  "been",
  "Been",
  "being",
  "Being",
  "is",
  "'re",
  "'s",
  "has",
  "does",
  "Is",
  "'Re",
  "'S",
  "Has",
  "Does",
  "'m",
  "'",
  "'d",
  "'M",
  "'D",
  "was",
  "were",
  "did",
  "had",
  "Was",
  "Were",
  "Did",
  "Had",
  "\t",
  "en",
  "\n",
  " ",
  "\")",
  "\"",
  "'Cause",
  "'cause",
  "use",
  "'Xxxxx",
  "'Cos",
  "'cos",
  "Cos",
  "'Xxx",
  "'Coz",
  "'coz",
  "'Cuz",
  "'cuz",
  "Cuz",
  "'X",
  "'bout",
  "'xxxx",
  "cos",
  "'xxx",
  "cuz",
  "'x",
  "'em",
  "'xx",
  "'ll",
  "'nuff",
  "enough",
  "uff",
  "(*_*)",
  "(",
  "_*)",
  "(-8",
  "(-d",
  "(-:",
  "(-;",
  "(-_-)",
  "_-)",
  "(._.)",
  "_.)",
  "(:",
  "(;",
  "(=",
  "(>_<)",
  "_<)",
  "(^_^)",
  "_^)",
  "(o:",
  "(x:",
  "(\u00ac_\u00ac)",
  "_\u00ac)",
  "(\u0ca0_\u0ca0)",
  "_\u0ca0)",
  "(x_x)",
  "(\u256f\u00b0\u25a1\u00b0\uff09\u256f\ufe35\u253b\u2501\u253b",
  "\u253b\u2501\u253b",
  ")-:",
  ")",
  "):",
  "-_-",
  "-",
  "-__-",
  "__-",
  "._.",
  "0.0",
  "0",
  "d.d",
  "0.o",
  "d.x",
  "0_0",
  "d_d",
  "0_o",
  "d_x",
  "10",
  "1",
  "dd",
  "a.m.",
  "a",
  ".m.",
  "x.x.",
  "xx",
  "p.m.",
  "p",
  "pm",
  "11",
  "12",
  "d",
  "2",
  "3",
  "4",
  "5",
  "6",
  "7",
  "8)",
  "8",
  "d)",
  "8-)",
  "d-)",
  "8-D",
  "8-d",
  "d-X",
  "8D",
  "8d",
  "dX",
  "9",
  ":'(",
  ":')",
  ":'-(",
  "'-(",
  ":'-)",
  "'-)",
  ":(",
  ":((",
  ":(((",
  "(((",
  ":()",
  ":)",
  ":))",
  ":)))",
  ")))",
  ":*",
  ":-(",
  ":-((",
  "-((",
  ":-(((",
  ":-)",
  ":-))",
  "-))",
  ":-)))",
  ":-*",
  ":-/",
  ":-0",
  ":-d",
  ":-3",
  ":->",
  ":-D",
  ":-X",
  ":-O",
  ":-o",
  ":-P",
  ":-p",
  ":-x",
  ":-]",
  ":-|",
  ":-}",
  ":/",
  ":0",
  ":d",
  ":1",
  ":3",
  ":>",
  ":D",
  ":X",
  ":O",
  ":o",
  ":P",
  ":p",
  ":x",
  ":]",
  ":o)",
  ":x)",
  ":|",
  ":}",
  ":\u2019(",
  ":\u2019)",
  ":\u2019-(",
  "\u2019-(",
  ":\u2019-)",
  "\u2019-)",
  ";)",
  ";",
  ";-)",
  ";-D",
  ";-d",
  ";-X",
  ";D",
  ";d",
  ";X",
  ";_;",
  "<.<",
  "<",
  "</3",
  "</d",
  "<3",
  "<d",
  "<33",
  "<dd",
  "<333",
  "333",
  "<ddd",
  "<space>",
  "ce>",
  "<xxxx>",
  "=(",
  "=",
  "=)",
  "=/",
  "=3",
  "=d",
  "=D",
  "=X",
  "=|",
  ">.<",
  ">",
  ">.>",
  ">:(",
  ">:o",
  ">:x",
  "><(((*>",
  "(*>",
  "@_@",
  "@",
  "Adm.",
  "adm.",
  "A",
  "dm.",
  "Xxx.",
  "Ai",
  "ai",
  "Xx",
  "n",
  "x'x",
  "x\u2019x",
  "Ak.",
  "Alaska",
  "ak.",
  "Xx.",
  "Ala.",
  "Alabama",
  "ala.",
  "la.",
  "Apr.",
  "April",
  "apr.",
  "pr.",
  "Xxx",
  "Ariz.",
  "Arizona",
  "ariz.",
  "iz.",
  "Xxxx.",
  "Ark.",
  "Arkansas",
  "ark.",
  "rk.",
  "Aug.",
  "August",
  "aug.",
  "ug.",
  "Bros.",
  "bros.",
  "B",
  "os.",
  "C++",
  "c++",
  "C",
  "X++",
  "Calif.",
  "California",
  "calif.",
  "if.",
  "Xxxxx.",
  "Ca",
  "can",
  "ca",
  "Can",
  "xxx",
  "ve",
  "v",
  "\u2019ve",
  "\u2019",
  "\u2019xx",
  "Co.",
  "co.",
  "Colo.",
  "Colorado",
  "colo.",
  "lo.",
  "Conn.",
  "Connecticut",
  "conn.",
  "nn.",
  "Corp.",
  "corp.",
  "rp.",
  "Could",
  "could",
  "uld",
  "Xxxxx",
  "D.C.",
  "d.c.",
  "D",
  ".C.",
  "X.X.",
  "Dare",
  "dare",
  "Xxxx",
  "Dec.",
  "December",
  "dec.",
  "ec.",
  "Del.",
  "Delaware",
  "del.",
  "el.",
  "oes",
  "Doin",
  "doing",
  "doin",
  "oin",
  "Doin'",
  "doin'",
  "in'",
  "Xxxx'",
  "Doin\u2019",
  "doin\u2019",
  "in\u2019",
  "Xxxx\u2019",
  "Dr.",
  "dr.",
  "E.G.",
  "e.g.",
  "E",
  ".G.",
  "E.g.",
  ".g.",
  "X.x.",
  "Feb.",
  "February",
  "feb.",
  "F",
  "eb.",
  "Fla.",
  "Florida",
  "fla.",
  "Ga.",
  "Georgia",
  "ga.",
  "G",
  "Gen.",
  "gen.",
  "en.",
  "Goin",
  "go",
  "going",
  "goin",
  "Goin'",
  "goin'",
  "Goin\u2019",
  "goin\u2019",
  "Gon",
  "gon",
  "na",
  "Got",
  "got",
  "ta",
  "t",
  "Gov.",
  "gov.",
  "ov.",
  "H",
  "ave",
  "Havin",
  "having",
  "havin",
  "vin",
  "Havin'",
  "havin'",
  "Xxxxx'",
  "Havin\u2019",
  "havin\u2019",
  "Xxxxx\u2019",
  "would",
  "x",
  "ll",
  "l",
  "s",
  "\u2019d",
  "\u2019x",
  "\u2019ll",
  "\u2019s",
  "How",
  "how",
  "'y",
  "re",
  "r",
  "\u2019y",
  "\u2019re",
  "i",
  "going to",
  "gonna",
  "I.E.",
  "i.e.",
  ".E.",
  "I.e.",
  ".e.",
  "Ia.",
  "Iowa",
  "ia.",
  "Id.",
  "Idaho",
  "id.",
  "Ill.",
  "Illinois",
  "ill.",
  "ll.",
  "m",
  "Inc.",
  "inc.",
  "nc.",
  "Ind.",
  "Indiana",
  "ind.",
  "nd.",
  "\u2019m",
  "Jan.",
  "January",
  "jan.",
  "J",
  "an.",
  "Jr.",
  "jr.",
  "Jul.",
  "July",
  "jul.",
  "ul.",
  "Jun.",
  "June",
  "jun.",
  "un.",
  "Kan.",
  "Kansas",
  "kan.",
  "K",
  "Kans.",
  "kans.",
  "ns.",
  "Ky.",
  "Kentucky",
  "ky.",
  "La.",
  "Louisiana",
  "L",
  "Let",
  "let",
  "Lovin",
  "love",
  "loving",
  "lovin",
  "Lovin'",
  "lovin'",
  "Lovin\u2019",
  "lovin\u2019",
  "Ltd.",
  "ltd.",
  "td.",
  "Ma'am",
  "madam",
  "ma'am",
  "M",
  "'am",
  "Xx'xx",
  "Mar.",
  "March",
  "mar.",
  "ar.",
  "Mass.",
  "Massachusetts",
  "mass.",
  "ss.",
  "May.",
  "May",
  "may.",
  "ay.",
  "may",
  "Ma\u2019am",
  "ma\u2019am",
  "\u2019am",
  "Xx\u2019xx",
  "Md.",
  "md.",
  "Messrs.",
  "messrs.",
  "rs.",
  "Mich.",
  "Michigan",
  "mich.",
  "ch.",
  "Might",
  "might",
  "ght",
  "Minn.",
  "Minnesota",
  "minn.",
  "Miss.",
  "Mississippi",
  "miss.",
  "Mo.",
  "mo.",
  "Mont.",
  "mont.",
  "nt.",
  "Mr.",
  "mr.",
  "Mrs.",
  "mrs.",
  "Ms.",
  "ms.",
  "Mt.",
  "Mount",
  "mt.",
  "Must",
  "must",
  "ust",
  "N.C.",
  "North Carolina",
  "n.c.",
  "N",
  "N.D.",
  "North Dakota",
  "n.d.",
  ".D.",
  "N.H.",
  "New Hampshire",
  "n.h.",
  ".H.",
  "N.J.",
  "New Jersey",
  "n.j.",
  ".J.",
  "N.M.",
  "New Mexico",
  "n.m.",
  ".M.",
  "N.Y.",
  "New York",
  "n.y.",
  ".Y.",
  "Neb.",
  "Nebraska",
  "neb.",
  "Nebr.",
  "nebr.",
  "br.",
  "Need",
  "need",
  "eed",
  "Nev.",
  "Nevada",
  "nev.",
  "ev.",
  "Nothin",
  "nothin",
  "hin",
  "Nothin'",
  "nothin'",
  "Nothin\u2019",
  "nothin\u2019",
  "Nov.",
  "November",
  "nov.",
  "Nuthin",
  "nuthin",
  "Nuthin'",
  "nuthin'",
  "Nuthin\u2019",
  "nuthin\u2019",
  "O'clock",
  "o'clock",
  "O",
  "ock",
  "X'xxxx",
  "O.O",
  "o.o",
  "X.X",
  "O.o",
  "X.x",
  "O_O",
  "o_o",
  "X_X",
  "O_o",
  "X_x",
  "Oct.",
  "October",
  "oct.",
  "ct.",
  "Okla.",
  "Oklahoma",
  "okla.",
  "Ol",
  "old",
  "ol",
  "Ol'",
  "ol'",
  "Xx'",
  "Ol\u2019",
  "ol\u2019",
  "Xx\u2019",
  "Ore.",
  "Oregon",
  "ore.",
  "re.",
  "Ought",
  "ought",
  "O\u2019clock",
  "o\u2019clock",
  "X\u2019xxxx",
  "Pa.",
  "Pennsylvania",
  "pa.",
  "P",
  "Ph.D.",
  "ph.d.",
  "Xx.X.",
  "Prof.",
  "prof.",
  "of.",
  "Rep.",
  "rep.",
  "R",
  "ep.",
  "Rev.",
  "rev.",
  "S.C.",
  "South Carolina",
  "s.c.",
  "S",
  "Sen.",
  "sen.",
  "Sep.",
  "September",
  "sep.",
  "Sept.",
  "sept.",
  "pt.",
  "Sha",
  "shall",
  "sha",
  "Should",
  "should",
  "Somethin",
  "somethin",
  "Somethin'",
  "somethin'",
  "Somethin\u2019",
  "somethin\u2019",
  "St.",
  "st.",
  "Tenn.",
  "Tennessee",
  "tenn.",
  "T",
  "hat",
  "There",
  "there",
  "ere",
  "hey",
  "V.V",
  "v.v",
  "V",
  "V_V",
  "v_v",
  "Va.",
  "Virginia",
  "va.",
  "Wash.",
  "Washington",
  "wash.",
  "W",
  "sh.",
  "What",
  "what",
  "When",
  "when",
  "hen",
  "Where",
  "where",
  "Who",
  "who",
  "Why",
  "why",
  "Wis.",
  "Wisconsin",
  "wis.",
  "is.",
  "Wo",
  "wo",
  "Would",
  "XD",
  "xd",
  "XDD",
  "xdd",
  "XXX",
  "Y",
  "[-:",
  "[",
  "[:",
  "\\\")",
  "\\",
  "\\n",
  "\\x",
  "\\t",
  "^_^",
  "^",
  "^__^",
  "__^",
  "^___^",
  "a.",
  "x.",
  "and/or",
  "/or",
  "xxx/xx",
  "b.",
  "b",
  "c.",
  "c",
  "xxxx",
  "xx.",
  "d.",
  "xxxx'",
  "xxxx\u2019",
  "e.",
  "e",
  "em",
  "f.",
  "f",
  "g.",
  "g",
  "h.",
  "h",
  "i.",
  "j.",
  "j",
  "k.",
  "k",
  "l.",
  "m.",
  "xx'xx",
  "xx\u2019xx",
  "n.",
  "nuff",
  "o",
  "x'xxxx",
  "o.",
  "o.0",
  "x.d",
  "o.O",
  "x.X",
  "x.x",
  "o_0",
  "x_d",
  "o_O",
  "x_X",
  "x_x",
  "xx'",
  "xx\u2019",
  "x\u2019xxxx",
  "p.",
  "q.",
  "q",
  "r.",
  "s.",
  "t.",
  "u.",
  "u",
  "v.",
  "v.s.",
  ".s.",
  "vs.",
  "w.",
  "w",
  "w/o",
  "x/x",
  "xD",
  "xX",
  "xDD",
  "xXX",
  "y'",
  "y",
  "x'",
  "all",
  "y.",
  "y\u2019",
  "x\u2019",
  "z.",
  "z",
  "\u00a0",
  "  ",
  "\u00af\\(\u30c4)/\u00af",
  "\u00af",
  ")/\u00af",
  "\u00af\\(x)/\u00af",
  "\u00e4.",
  "\u00e4",
  "\u00f6.",
  "\u00f6",
  "\u00fc.",
  "\u00fc",
  "\u0ca0_\u0ca0",
  "\u0ca0",
  "\u0ca0\ufe35\u0ca0",
  "x\ufe35x",
  "\u2014",
  "\u2018S",
  "\u2018s",
  "\u2018",
  "\u2018X",
  "\u2018x",
  "\u2019Cause",
  "\u2019cause",
  "\u2019Xxxxx",
  "\u2019Cos",
  "\u2019cos",
  "\u2019Xxx",
  "\u2019Coz",
  "\u2019coz",
  "\u2019Cuz",
  "\u2019cuz",
  "\u2019S",
  "\u2019X",
  "\u2019bout",
  "\u2019xxxx",
  "\u2019xxx",
  "\u2019em",
  "\u2019nuff",
  "\u2019\u2019",
  "ROOT",
  "SOURCE",
  "DEST",
  "WEIGHT",
  "QTY",
  "DIM",
  "CONTENT",
  "Hello",
  "hello",
  "llo",
  "\u00e5\u00ca",
  "\u00e5\u00ea",
  "\u00e5",
  "please",
  "ase",
  "assist",
  "ist",
  "ith",
  "low",
  "quote",
  "ote",
  "?",
  "request",
  "est",
  "Please",
  "elf",
  "sent",
  "ent",
  "directly",
  "tly",
  "customer",
  "mer",
  "Best",
  "best",
  "_",
  "Pricing",
  "pricing",
  "ing",
  "&",
  "Quotation",
  "quotation",
  "Q",
  "ion",
  "Specialist",
  "specialist",
  "Covering",
  "covering",
  "PHL",
  "phl",
  "PIT",
  "pit",
  "DHL",
  "dhl",
  "Global",
  "global",
  "bal",
  "Forwarding",
  "forwarding",
  "850",
  "ddd",
  "Calcon",
  "calcon",
  "con",
  "Hook",
  "hook",
  "ook",
  "Road",
  "road",
  "oad",
  "Bay",
  "bay",
  "16",
  "Sharon",
  "sharon",
  "ron",
  "Hill",
  "hill",
  "ill",
  "PA\u00e5\u00ca",
  "pa\u00e5\u00ea",
  "A\u00e5\u00ca",
  "XXxX",
  "19079",
  "079",
  "dddd",
  "United",
  "united",
  "U",
  "ted",
  "States",
  "states",
  "tes",
  "Phone",
  "phone",
  "one",
  "\u00ca",
  "\u00ea",
  "dhl-manager@dhl.com",
  "com",
  "xxx-xxxx@xxx.xxx",
  "www.dhl-dgf.com",
  "xxx.xxx-xxx.xxx",
  "All",
  "business",
  "ess",
  "transactions",
  "ons",
  "based",
  "sed",
  "DHL\u00e5\u00caGlobal",
  "dhl\u00e5\u00eaglobal",
  "XXXxXXxxxx",
  "Forwarding\u00e5\u00caterms",
  "forwarding\u00e5\u00eaterms",
  "rms",
  "XxxxxXxxxx",
  "and",
  "conditions",
  "available",
  "ble",
  "pon",
  "Quotes",
  "quotes",
  "Email",
  "email",
  "ail",
  "P\u00e5\u00caPlease",
  "p\u00e5\u00eaplease",
  "XxXXxxxx",
  "consider",
  "der",
  "the",
  "environment",
  "ore",
  "printing",
  "mail",
  "rom",
  "Sent",
  "Monday",
  "monday",
  "day",
  "july",
  "uly",
  "2019",
  "019",
  "11:51",
  ":51",
  "dd:dd",
  "AM",
  "Subject",
  "subject",
  "ect",
  "fw",
  "Quote",
  "PO",
  "po",
  "7300407830",
  "830",
  "!",
  "Thanks",
  "thanks",
  "nks",
  "million",
  "\u00e5\u00caassistant.quote",
  "\u00e5\u00eaassistant.quote",
  "xXxxxx.xxxx",
  "Air",
  "air",
  "Export",
  "export",
  "ort",
  "PA\u00e5\u00ca\u00e5\u00ca",
  "pa\u00e5\u00ea\u00e5\u00ea",
  "\u00ca\u00e5\u00ca",
  "XXxXxX",
  "note",
  "pickup",
  "kup",
  "requests",
  "sts",
  "received",
  "ved",
  "ter",
  "2PM",
  "2pm",
  "dXX",
  "scheduled",
  "led",
  "next",
  "ext",
  "assistant.quote@dhl.com",
  "xxxx.xxxx@xxx.xxx",
  "*",
  "hours",
  "urs",
  "Friday",
  "friday",
  "08:30",
  ":30",
  "17:00",
  ":00",
  "EST",
  "]",
  "11:50",
  ":50",
  "Good",
  "good",
  "ood",
  "Morning",
  "morning",
  "following",
  "pallet",
  "135lbs",
  "lbs",
  "dddxxx",
  "40x40x39",
  "x39",
  "ddxddxdd",
  "Shipping",
  "shipping",
  "Wrexham",
  "wrexham",
  "ham",
  "Denbighshire",
  "denbighshire",
  "ire",
  "LL13",
  "ll13",
  "L13",
  "XXdd",
  "9UF",
  "9uf",
  "GB",
  "gb",
  "Incoterms",
  "incoterms",
  "DDP",
  "ddp",
  "Insurance",
  "insurance",
  "nce",
  "10,975.00",
  ".00",
  "dd,ddd.dd",
  "Thank",
  "thank",
  "ank",
  "you,________Product",
  "you,________product",
  "uct",
  "xxx,____Xxxxx",
  "Solutions",
  "solutions",
  "PA",
  "pa",
  "215",
  "763",
  "8200",
  "200",
  "x40519",
  "519",
  "xdddd",
  "Hi",
  "hi",
  "hoping",
  "able",
  "query",
  "ery",
  "looking",
  "send",
  "end",
  "carboard",
  "ard",
  "boxes",
  "xes",
  "which",
  "ich",
  "300",
  "mm",
  "310",
  "240",
  "weight",
  "approx",
  "rox",
  "kg",
  "each",
  "ach",
  "ese",
  "collected",
  "Lane",
  "lane",
  "ane",
  "Mitcham",
  "mitcham",
  "CR4",
  "cr4",
  "XXd",
  "4NA",
  "4na",
  "And",
  "delivered",
  "red",
  "Stone",
  "stone",
  "Mountain",
  "mountain",
  "ain",
  "GA",
  "ga",
  "30083",
  "083",
  "CDI",
  "cdi",
  "USA",
  "usa",
  "know",
  "now",
  "transit",
  "sit",
  "times",
  "mes",
  "costs",
  "provide",
  "ide",
  "an",
  "freight",
  "Collection",
  "collection",
  "Address",
  "address",
  "Witham",
  "witham",
  "Essex",
  "essex",
  "sex",
  "CM8",
  "cm8",
  "3AH",
  "3ah",
  "Delivery",
  "delivery",
  "Behind",
  "behind",
  "ind",
  "Al",
  "al",
  "Ittihad",
  "ittihad",
  "Deira",
  "deira",
  "ira",
  "Dubai",
  "dubai",
  "bai",
  "Arab",
  "arab",
  "rab",
  "Emirates",
  "emirates",
  "Shipment",
  "shipment",
  "Pallet",
  "120",
  "80",
  "124",
  "cms",
  "Weight",
  "296kgs",
  "kgs",
  "CPT",
  "cpt",
  "ike",
  "China",
  "china",
  "ina",
  "The",
  "total",
  "tal",
  "20",
  "cartons",
  "410kgs",
  "1.9cbm",
  "cbm",
  "d.dxxx",
  "Ningbo",
  "ningbo",
  "gbo",
  "84095",
  "095",
  "picking",
  "up",
  "goods",
  "ods",
  "more",
  "details",
  "ils",
  "pallets",
  "ets",
  "weighing",
  "han",
  "500lbs",
  "measuring",
  "4x4x70",
  "x70",
  "dxdxdd",
  "per",
  "Pick",
  "pick",
  "ick",
  "Brea",
  "brea",
  "rea",
  "CA",
  "deliver",
  "ver",
  "Cicero",
  "cicero",
  "ero",
  "Il",
  "il",
  "afternoon",
  "oon",
  "given",
  "ven",
  "two",
  "lots",
  "ots",
  "weights",
  "hts",
  "dims",
  "ims",
  "cheapest",
  "option",
  "122",
  "210",
  "Cm",
  "cm",
  "130Kg",
  "130kg",
  "0Kg",
  "dddXx",
  "Approx",
  "Or",
  "or",
  "CTNS",
  "ctns",
  "TNS",
  "XXXX",
  "53",
  "61",
  "59",
  "22",
  "Kg",
  "Each",
  "NON",
  "non",
  "HAZ",
  "haz",
  "DOOR",
  "door",
  "OOR",
  "East",
  "east",
  "ast",
  "Brisbane",
  "brisbane",
  "Queensland",
  "queensland",
  "Australia",
  "australia",
  "lia",
  "4169",
  "169",
  "Up",
  "Milpitas",
  "milpitas",
  "tas",
  "95035",
  "035",
  "Arana",
  "arana",
  "ana",
  "Security",
  "security",
  "ity",
  "SM6",
  "sm6",
  "7AH",
  "7ah",
  "1x",
  "dx",
  "101.6",
  "1.6",
  "ddd.d",
  "x121x147.32CM",
  "x121x147.32cm",
  "2CM",
  "xdddxddd.ddXX",
  "104Kg",
  "104kg",
  "4Kg",
  "46.4",
  "6.4",
  "dd.d",
  "49.9",
  "9.9",
  "15.2",
  "5.2",
  "2.3KG",
  "2.3kg",
  "3KG",
  "d.dXX",
  "48x48x7CM",
  "48x48x7cm",
  "7CM",
  "ddxddxdXX",
  "2.7Kg",
  "2.7kg",
  "7Kg",
  "d.dXx",
  "101x27x27CM",
  "101x27x27cm",
  "dddxddxddXX",
  "5.4Kg",
  "5.4kg",
  "Origin",
  "origin",
  "gin",
  "Nogales",
  "nogales",
  "les",
  "AZ",
  "az",
  "85621",
  "621",
  "Destination",
  "destination",
  "PATHUMTHANI",
  "pathumthani",
  "ANI",
  "12150",
  "150",
  "TH",
  "th",
  "327",
  "40x48x14",
  "x14",
  "Economy",
  "economy",
  "omy",
  "Service",
  "service",
  "ice",
  "Door",
  "oor",
  "DAP",
  "dap",
  "location",
  "street",
  "eet",
  "Transportation",
  "transportation",
  "Coordinator",
  "coordinator",
  "tor",
  "40\u00e5\u00ca",
  "40\u00e5\u00ea",
  "0\u00e5\u00ca",
  "ddxX",
  "|____________84092",
  "|",
  "092",
  "|____dddd",
  "aaaaaa",
  "aaa",
  "x.3923",
  "923",
  "x.dddd",
  "414",
  "00000",
  "000",
  "@_____.com",
  "@____.xxx",
  "Mx",
  "mx",
  "011",
  "www.company.com",
  "xxx.xxxx.xxx",
  "MCI",
  "mci",
  "overnight",
  "opportunity",
  "likely",
  "ely",
  "lost",
  "ost",
  "regards",
  "rds",
  "Capacity",
  "capacity",
  "Management",
  "management",
  "Dublin",
  "dublin",
  "lin",
  "Ireland",
  "ireland",
  "------------------------------------------------------------------------------------------------------------------------",
  "---",
  "LONG",
  "/",
  "_______.___________@dhl.com",
  "____.____@xxx.xxx",
  "FAX",
  "fax",
  "-------------------------------------------------------------------------------------------------------------------------------------------------------",
  "IE",
  "ie",
  "16:07",
  ":07",
  "DGF",
  "dgf",
  "US",
  "AFR",
  "afr",
  "QUOTES",
  "TES",
  "RE",
  "Inbound",
  "inbound",
  "und",
  "rate",
  "ate",
  "ORK",
  "ork",
  "overlenght",
  "advise",
  "ise",
  "we\u0089\u00db\u00aall",
  "we\u0089\u00fb\u00aall",
  "\u00aall",
  "xx\u0089Xxxx",
  "returned",
  "ned",
  "ASAP",
  "asap",
  "SAP",
  "28",
  "june",
  "une",
  "15:24",
  ":24",
  "expected",
  "move",
  "ove",
  "week",
  "eek",
  "confirm",
  "irm",
  "terms",
  "pcs",
  "685.0",
  "5.0",
  "Dims",
  "630x50x60cms",
  "dddxddxddxxx",
  "\u0089\u00db\u00d2",
  "\u0089\u00fb\u00f2",
  "\u0089",
  "\u0089XX",
  "440kgs",
  "320x50x70cms",
  "245kgs",
  "Commodity",
  "commodity",
  "tubing",
  "Springfield",
  "springfield",
  "eld",
  "MO",
  "mo",
  "65803",
  "803",
  "Mangement",
  "mangement",
  "Cedar",
  "cedar",
  "dar",
  "Drive",
  "drive",
  "ive",
  "Airport",
  "airport",
  "Logistics",
  "logistics",
  "ics",
  "Park",
  "park",
  "ark",
  "Margaret\u0089\u00db\u00aas",
  "margaret\u0089\u00fb\u00aas",
  "\u00db\u00aas",
  "Xxxxx\u0089Xxx",
  "K67",
  "k67",
  "Xdd",
  "R970",
  "r970",
  "970",
  "Xddd",
  "Tel",
  "tel",
  "Fax",
  "Mail",
  "www.dhl.ie",
  ".ie",
  "xxx.xxx.xx",
  "GOGREEN",
  "gogreen",
  "EEN",
  "Climate",
  "climate",
  "Protection",
  "protection",
  "message",
  "age",
  "limited",
  "contain",
  "confidential",
  "ial",
  "information",
  "intended",
  "ded",
  "solely",
  "individual",
  "ual",
  "whom",
  "hom",
  "addressed",
  "recipient",
  "contact",
  "act",
  "sender",
  "delete",
  "ete",
  "any",
  "attachment",
  "system",
  "tem",
  "Unauthorised",
  "unauthorised",
  "unauthorized",
  "publication",
  "dissemination",
  "copying",
  "attachments",
  "nts",
  "strictly",
  "prohibited",
  "Dear",
  "dear",
  "ear",
  "Team",
  "team",
  "eam",
  "partner",
  "ner",
  "event",
  "Anfield",
  "anfield",
  "october",
  "ber",
  "27th",
  "7th",
  "ddxx",
  "food",
  "22nd",
  "2nd",
  "went",
  "Switzerland",
  "switzerland",
  "Liverpool",
  "liverpool",
  "ool",
  "product",
  "Swiss",
  "swiss",
  "iss",
  "dry",
  "beef",
  "eef",
  "meat",
  "eat",
  "cured",
  "bacon",
  "25",
  "pieces",
  "ces",
  "sausages",
  "ges",
  "Raclette",
  "raclette",
  "tte",
  "cheese",
  "Rye",
  "rye",
  "bred",
  "small",
  "onions",
  "vinegar",
  "gar",
  "pickels",
  "els",
  "already",
  "ady",
  "Suisse",
  "suisse",
  "sse",
  "said",
  "aid",
  "import",
  "customs",
  "oms",
  "clearance",
  "informe",
  "rme",
  "UK",
  "uk",
  "prepare",
  "autorisation",
  "return",
  "urn",
  "responsable",
  "commercial",
  "et",
  "Marketing",
  "marketing",
  "Other",
  "other",
  "mixed",
  "xed",
  "fit",
  "tickedshipment",
  "size",
  "ize",
  "Length",
  "length",
  "gth",
  "90",
  "Width",
  "width",
  "dth",
  "60",
  "Height",
  "height",
  "Total",
  "70",
  "carrier",
  "ier",
  "port",
  "Brazil",
  "brazil",
  "zil",
  "Rate",
  "Request",
  "Order",
  "order",
  "Number",
  "Reference",
  "reference",
  "City",
  "city",
  "STL",
  "stl",
  "Country",
  "country",
  "try",
  "Port",
  "specified",
  "ied",
  "ITAPIRA",
  "itapira",
  "IRA",
  "Brasil",
  "brasil",
  "sil",
  "GUARULHOS",
  "guarulhos",
  "HOS",
  "Intl",
  "intl",
  "ntl",
  "Type",
  "type",
  "ype",
  "Standard",
  "standard",
  "Expedited",
  "expedited",
  "Pallets",
  "Dimensions",
  "dimensions",
  "Inches",
  "inches",
  "hes",
  "Cubic",
  "cubic",
  "bic",
  "Volume",
  "volume",
  "ume",
  "known",
  "own",
  "m3",
  "11x11x11",
  "x11",
  "Double",
  "double",
  "Stacked",
  "stacked",
  "ked",
  "yes",
  "no",
  "Gross",
  "gross",
  "oss",
  "Chargeable",
  "chargeable",
  "Item",
  "item",
  "1492",
  "492",
  "26",
  "NALOXONE",
  "naloxone",
  "ONE",
  "HCL",
  "hcl",
  "Notes",
  "notes",
  "Special",
  "special",
  "Requirements",
  "requirements",
  "Hazmat",
  "hazmat",
  "mat",
  "date",
  "Controlled",
  "controlled",
  "Estimated",
  "estimated",
  "Ship",
  "ship",
  "hip",
  "Date",
  "september",
  "Oct",
  "oct",
  "Annual",
  "annual",
  "Shipments",
  "shipments",
  "Carrier",
  "Freight",
  "Payment",
  "payment",
  "inquires",
  "res",
  "---___@abc.com",
  "---___@xxx.xxx",
  "mailto",
  "lto",
  "/Manager",
  "/manager",
  "ger",
  "/Xxxxx",
  "Distribution",
  "distribution",
  "Manager",
  "manager",
  "Webster",
  "webster",
  "Groves",
  "groves",
  "ves",
  "Missouri",
  "missouri",
  "uri",
  "63119",
  "119",
  "mailto:---___@abc.com",
  "xxxx:---___@xxx.xxx",
  "www.______.com",
  "xxx.____.xxx",
  "http://www.______.com/",
  "om/",
  "xxxx://xxx.____.xxx/",
  "arrange",
  "nge",
  "Nakanohara",
  "nakanohara",
  "ara",
  "Ina-",
  "ina-",
  "na-",
  "Xxx-",
  "Nagano",
  "nagano",
  "ano",
  "Pref",
  "pref",
  "ref",
  "396",
  "0031",
  "031",
  "Japan",
  "japan",
  "pan",
  "Contact",
  "WEST",
  "west",
  "SUSSEX",
  "sussex",
  "SEX",
  "RH13",
  "rh13",
  "H13",
  "8RA",
  "8ra",
  "TEL",
  "TTL",
  "ttl",
  "1PLT",
  "1plt",
  "PLT",
  "dXXX",
  "122KG",
  "122kg",
  "2KG",
  "dddXX",
  "82X82X65CM",
  "82x82x65cm",
  "5CM",
  "ddXddXddXX",
  "een",
  "advised",
  "supplier",
  "due",
  "Tube",
  "tube",
  "ube",
  "330x20x20",
  "x20",
  "dddxddxdd",
  "Shannon",
  "shannon",
  "Clare",
  "clare",
  "Deliver",
  "Chalgrove",
  "chalgrove",
  "Oxford",
  "oxford",
  "ord",
  "OX44",
  "ox44",
  "X44",
  "7RW",
  "7rw",
  "U.K.",
  "u.k.",
  ".K.",
  "Many",
  "many",
  "advance",
  "enquiry",
  "iry",
  "HYD",
  "hyd",
  "Target",
  "target",
  "price",
  "USD",
  "usd",
  "kilo",
  "ilo",
  "\u00e1",
  "Material",
  "material",
  "Code",
  "code",
  "ode",
  "P92V00076",
  "p92v00076",
  "076",
  "XddXdddd",
  "Description",
  "description",
  "13",
  "RFS",
  "rfs",
  "Stoppers",
  "stoppers",
  "ers",
  "Packing",
  "packing",
  "Materials",
  "materials",
  "als",
  "\u00e5\u00e1",
  "14",
  "48\u0089\u00db\u00aa\u0089\u00db\u00aa",
  "48\u0089\u00fb\u00aa\u0089\u00fb\u00aa",
  "\u0089\u00db\u00aa",
  "dd\u0089Xx\u0089Xx",
  "40\u0089\u00db\u00aa\u0089\u00db\u00aa",
  "40\u0089\u00fb\u00aa\u0089\u00fb\u00aa",
  "31\u0089\u00db\u00aa\u0089\u00db\u00aa",
  "31\u0089\u00fb\u00aa\u0089\u00fb\u00aa",
  "3,200.00",
  "d,ddd.dd",
  "KG",
  "Aprox",
  "aprox",
  "Hyderabad",
  "hyderabad",
  "bad",
  "India",
  "india",
  "dia",
  "Supplier",
  "shipper",
  "Pennsauken",
  "pennsauken",
  "ken",
  "NJ",
  "nj",
  "08110",
  "110",
  "using",
  "services",
  "trust",
  "finds",
  "nds",
  "well",
  "ell",
  "box",
  "Wallington",
  "wallington",
  "ton",
  "Surrey",
  "surrey",
  "rey",
  "Erbil",
  "erbil",
  "bil",
  "International",
  "international",
  "nal",
  "Iraq",
  "iraq",
  "raq",
  "Size",
  "Box",
  "1-",
  "d-",
  "81x57x33CM",
  "81x57x33cm",
  "3CM",
  "ddxddxddXX",
  "19Kg",
  "19kg",
  "9Kg",
  "ddXx",
  "Antrim",
  "antrim",
  "rim",
  "Kingdom",
  "kingdom",
  "dom",
  "BT41",
  "bt41",
  "T41",
  "4NT",
  "4nt",
  "40\"x48\"x72\"high",
  "igh",
  "dd\"xdd\"xdd\"xxxx",
  "weighs",
  "ghs",
  "500",
  "select",
  "America",
  "america",
  "ica",
  "schedule",
  "ule",
  "Toledo",
  "toledo",
  "edo",
  "OH",
  "oh",
  "loaded",
  "cleaning",
  "samples",
  "conference",
  "Maputo",
  "maputo",
  "uto",
  "Mozambique",
  "mozambique",
  "que",
  "1,136lbs",
  "d,dddxxx",
  "Looking",
  "most",
  "cost",
  "effective",
  "way",
  "guarantee",
  "tee",
  "arrival",
  "val",
  "23",
  "curbside",
  "pc\u00e5\u00ca\u00e5\u00ca\u00e5\u00ca\u00e5\u00ca\u00e5\u00ca\u00e5\u00ca\u00e5\u00ca\u00e5\u00ca\u00e5\u00ca\u00e5\u00ca\u00e5\u00ca\u00e5\u00ca\u00e5\u00ca\u00e5\u00ca\u00e5\u00ca\u00e5\u00ca",
  "pc\u00e5\u00ea\u00e5\u00ea\u00e5\u00ea\u00e5\u00ea\u00e5\u00ea\u00e5\u00ea\u00e5\u00ea\u00e5\u00ea\u00e5\u00ea\u00e5\u00ea\u00e5\u00ea\u00e5\u00ea\u00e5\u00ea\u00e5\u00ea\u00e5\u00ea\u00e5\u00ea",
  "xxxXxXxXxXxXxXxXxXxXxXxXxXxXxXxXxX",
  "98x28x11\u00e5\u00ca\u00e5\u00ca\u00e5\u00ca\u00e5\u00ca\u00e5\u00ca\u00e5\u00ca\u00e5\u00ca\u00e5\u00ca\u00e5\u00ca\u00e5\u00ca\u00e5\u00ca\u00e5\u00ca\u00e5\u00ca\u00e5\u00ca\u00e5\u00ca\u00e5\u00ca\u00e5\u00ca\u00e5\u00ca\u00e5\u00ca",
  "98x28x11\u00e5\u00ea\u00e5\u00ea\u00e5\u00ea\u00e5\u00ea\u00e5\u00ea\u00e5\u00ea\u00e5\u00ea\u00e5\u00ea\u00e5\u00ea\u00e5\u00ea\u00e5\u00ea\u00e5\u00ea\u00e5\u00ea\u00e5\u00ea\u00e5\u00ea\u00e5\u00ea\u00e5\u00ea\u00e5\u00ea\u00e5\u00ea",
  "ddxddxddxXxXxXxXxXxXxXxXxXxXxXxXxXxXxXxXxXxXxX",
  "176",
  "8x8x6\u00e5\u00ca\u00e5\u00ca\u00e5\u00ca\u00e5\u00ca\u00e5\u00ca\u00e5\u00ca\u00e5\u00ca\u00e5\u00ca\u00e5\u00ca\u00e5\u00ca\u00e5\u00ca\u00e5\u00ca\u00e5\u00ca\u00e5\u00ca\u00e5\u00ca\u00e5\u00ca\u00e5\u00ca\u00e5\u00ca\u00e5\u00ca\u00e5\u00ca\u00e5\u00ca\u00e5\u00ca\u00e5\u00ca\u00e5\u00ca\u00e5\u00ca",
  "8x8x6\u00e5\u00ea\u00e5\u00ea\u00e5\u00ea\u00e5\u00ea\u00e5\u00ea\u00e5\u00ea\u00e5\u00ea\u00e5\u00ea\u00e5\u00ea\u00e5\u00ea\u00e5\u00ea\u00e5\u00ea\u00e5\u00ea\u00e5\u00ea\u00e5\u00ea\u00e5\u00ea\u00e5\u00ea\u00e5\u00ea\u00e5\u00ea\u00e5\u00ea\u00e5\u00ea\u00e5\u00ea\u00e5\u00ea\u00e5\u00ea\u00e5\u00ea",
  "dxdxdxXxXxXxXxXxXxXxXxXxXxXxXxXxXxXxXxXxXxXxXxXxXxXxXxX",
  "16x8x4\u00e5\u00ca\u00e5\u00ca\u00e5\u00ca\u00e5\u00ca\u00e5\u00ca\u00e5\u00ca\u00e5\u00ca\u00e5\u00ca\u00e5\u00ca\u00e5\u00ca\u00e5\u00ca\u00e5\u00ca\u00e5\u00ca\u00e5\u00ca\u00e5\u00ca\u00e5\u00ca\u00e5\u00ca\u00e5\u00ca\u00e5\u00ca\u00e5\u00ca\u00e5\u00ca\u00e5\u00ca\u00e5\u00ca",
  "16x8x4\u00e5\u00ea\u00e5\u00ea\u00e5\u00ea\u00e5\u00ea\u00e5\u00ea\u00e5\u00ea\u00e5\u00ea\u00e5\u00ea\u00e5\u00ea\u00e5\u00ea\u00e5\u00ea\u00e5\u00ea\u00e5\u00ea\u00e5\u00ea\u00e5\u00ea\u00e5\u00ea\u00e5\u00ea\u00e5\u00ea\u00e5\u00ea\u00e5\u00ea\u00e5\u00ea\u00e5\u00ea\u00e5\u00ea",
  "ddxdxdxXxXxXxXxXxXxXxXxXxXxXxXxXxXxXxXxXxXxXxXxXxXxX",
  "32x19x15\u00e5\u00ca\u00e5\u00ca\u00e5\u00ca\u00e5\u00ca\u00e5\u00ca\u00e5\u00ca\u00e5\u00ca\u00e5\u00ca\u00e5\u00ca\u00e5\u00ca\u00e5\u00ca\u00e5\u00ca\u00e5\u00ca\u00e5\u00ca\u00e5\u00ca\u00e5\u00ca\u00e5\u00ca\u00e5\u00ca\u00e5\u00ca",
  "32x19x15\u00e5\u00ea\u00e5\u00ea\u00e5\u00ea\u00e5\u00ea\u00e5\u00ea\u00e5\u00ea\u00e5\u00ea\u00e5\u00ea\u00e5\u00ea\u00e5\u00ea\u00e5\u00ea\u00e5\u00ea\u00e5\u00ea\u00e5\u00ea\u00e5\u00ea\u00e5\u00ea\u00e5\u00ea\u00e5\u00ea\u00e5\u00ea",
  "53x29x42\u00e5\u00ca\u00e5\u00ca\u00e5\u00ca\u00e5\u00ca\u00e5\u00ca\u00e5\u00ca\u00e5\u00ca",
  "53x29x42\u00e5\u00ea\u00e5\u00ea\u00e5\u00ea\u00e5\u00ea\u00e5\u00ea\u00e5\u00ea\u00e5\u00ea",
  "ddxddxddxXxXxXxXxXxXxX",
  "\u00e5\u00ca\u00e5\u00ca\u00e5\u00ca\u00e5\u00ca\u00e5\u00ca\u00e5\u00ca\u00e5\u00ca\u00e5\u00ca\u00e5\u00ca\u00e5\u00ca\u00e5\u00ca",
  "\u00e5\u00ea\u00e5\u00ea\u00e5\u00ea\u00e5\u00ea\u00e5\u00ea\u00e5\u00ea\u00e5\u00ea\u00e5\u00ea\u00e5\u00ea\u00e5\u00ea\u00e5\u00ea",
  "xXxXxXxXxXxXxXxXxXxXxX",
  "33x26x30\u00e5\u00ca\u00e5\u00ca\u00e5\u00ca\u00e5\u00ca\u00e5\u00ca\u00e5\u00ca\u00e5\u00ca\u00e5\u00ca\u00e5\u00ca\u00e5\u00ca\u00e5\u00ca\u00e5\u00ca\u00e5\u00ca\u00e5\u00ca\u00e5\u00ca\u00e5\u00ca\u00e5\u00ca\u00e5\u00ca\u00e5\u00ca",
  "33x26x30\u00e5\u00ea\u00e5\u00ea\u00e5\u00ea\u00e5\u00ea\u00e5\u00ea\u00e5\u00ea\u00e5\u00ea\u00e5\u00ea\u00e5\u00ea\u00e5\u00ea\u00e5\u00ea\u00e5\u00ea\u00e5\u00ea\u00e5\u00ea\u00e5\u00ea\u00e5\u00ea\u00e5\u00ea\u00e5\u00ea\u00e5\u00ea",
  "74",
  "51x6x4\u00e5\u00ca\u00e5\u00ca\u00e5\u00ca\u00e5\u00ca\u00e5\u00ca\u00e5\u00ca\u00e5\u00ca\u00e5\u00ca\u00e5\u00ca\u00e5\u00ca\u00e5\u00ca\u00e5\u00ca\u00e5\u00ca\u00e5\u00ca\u00e5\u00ca\u00e5\u00ca\u00e5\u00ca\u00e5\u00ca\u00e5\u00ca\u00e5\u00ca\u00e5\u00ca\u00e5\u00ca\u00e5\u00ca",
  "51x6x4\u00e5\u00ea\u00e5\u00ea\u00e5\u00ea\u00e5\u00ea\u00e5\u00ea\u00e5\u00ea\u00e5\u00ea\u00e5\u00ea\u00e5\u00ea\u00e5\u00ea\u00e5\u00ea\u00e5\u00ea\u00e5\u00ea\u00e5\u00ea\u00e5\u00ea\u00e5\u00ea\u00e5\u00ea\u00e5\u00ea\u00e5\u00ea\u00e5\u00ea\u00e5\u00ea\u00e5\u00ea\u00e5\u00ea",
  "17",
  "weight=",
  "ht=",
  "xxxx=",
  "1,576",
  "576",
  "d,ddd",
  "\u00e5\u00ca\u00e5\u00ca\u00e5\u00ca\u00e5\u00ca\u00e5\u00ca\u00e5\u00ca\u00e5\u00ca",
  "\u00e5\u00ea\u00e5\u00ea\u00e5\u00ea\u00e5\u00ea\u00e5\u00ea\u00e5\u00ea\u00e5\u00ea",
  "xXxXxXxXxXxXxX",
  "Szena",
  "szena",
  "ena",
  "\u00e5\u00ca\u00e5\u00ca\u00e5\u00ca\u00e5\u00ca\u00e5\u00ca\u00e5\u00ca\u00e5\u00ca\u00e5\u00ca\u00e5\u00ca\u00e5\u00ca\u00e5\u00ca\u00e5\u00ca\u00e5\u00ca\u00e5\u00ca\u00e5\u00ca\u00e5\u00ca",
  "\u00e5\u00ea\u00e5\u00ea\u00e5\u00ea\u00e5\u00ea\u00e5\u00ea\u00e5\u00ea\u00e5\u00ea\u00e5\u00ea\u00e5\u00ea\u00e5\u00ea\u00e5\u00ea\u00e5\u00ea\u00e5\u00ea\u00e5\u00ea\u00e5\u00ea\u00e5\u00ea",
  "xXxXxXxXxXxXxXxXxXxXxXxXxXxXxXxX",
  "\u00e5\u00ca\u00e5\u00ca\u00e5\u00ca\u00e5\u00ca\u00e5\u00ca\u00e5\u00ca\u00e5\u00ca\u00e5\u00ca",
  "\u00e5\u00ea\u00e5\u00ea\u00e5\u00ea\u00e5\u00ea\u00e5\u00ea\u00e5\u00ea\u00e5\u00ea\u00e5\u00ea",
  "xXxXxXxXxXxXxXxX",
  "Budapest",
  "budapest",
  "1015",
  "015",
  "HU",
  "hu",
  "-Business",
  "-business",
  "-Xxxxx",
  "Regards",
  "Int'l",
  "int'l",
  "t'l",
  "Xxx'x",
  "Clerk",
  "clerk",
  "erk",
  "|\u00e5\u00cacustomer",
  "|\u00e5\u00eacustomer",
  "|xXxxxx",
  "e)\u00e5\u00ca\u00e5\u00catransport",
  "e)\u00e5\u00ea\u00e5\u00eatransport",
  "x)xXxXxxxx",
  "manager2@companyF.com\u00e5\u00ca",
  "manager2@companyf.com\u00e5\u00ea",
  "m\u00e5\u00ca",
  "xxxxd@xxxxX.xxxxX",
  "|\u00e5\u00ca",
  "|\u00e5\u00ea",
  "|xX",
  "916",
  "00000\u00ca",
  "00000\u00ea",
  "00\u00ca",
  "ddddX",
  ".com\u00e5\u00ca",
  ".com\u00e5\u00ea",
  ".xxxxX",
  "|\u00e5",
  "|x",
  "Sacramento",
  "sacramento",
  "nto",
  "95828",
  "828",
  "transport",
  "manager@companyF.com",
  "manager@companyf.com",
  "xxxx@xxxxX.xxx",
  "01",
  "11:06",
  ":06",
  "quote@company.com",
  "xxxx@xxxx.xxx",
  "New",
  "new",
  "SO",
  "1054921",
  "921",
  "Sean",
  "sean",
  "ean",
  "Stephen",
  "stephen",
  "Value",
  "value",
  "lue",
  "23,197.50",
  ".50",
  "Business",
  "Ktransport",
  "ktransport",
  "companyF.com|\u00e5\u00ca",
  "companyf.com|\u00e5\u00ea",
  "xxxxX.xxx|xX",
  "Free",
  "free",
  "ree",
  "companyF",
  "companyf",
  "nyF",
  "xxxxX",
  "soon",
  "possible",
  "Information",
  "three",
  "34",
  "24",
  "18",
  "inch",
  "nch",
  "27",
  "15",
  "inch\u00e5\u00ca",
  "inch\u00e5\u00ea",
  "h\u00e5\u00ca",
  "34.17",
  ".17",
  "dd.dd",
  "Invoice",
  "invoice",
  "600.\u00e5\u00ca",
  "600.\u00e5\u00ea",
  ".\u00e5\u00ca",
  "ddd.xX",
  "No",
  "Commack",
  "commack",
  "ack",
  "NY",
  "ny",
  "11725",
  "725",
  "LIMASSOL",
  "limassol",
  "SOL",
  "KATO",
  "kato",
  "ATO",
  "POLEMID",
  "polemid",
  "MID",
  "4154",
  "154",
  "Cyprus",
  "cyprus",
  "rus",
  "Industry",
  "industry",
  "Sector",
  "sector",
  "Chemical",
  "chemical",
  "cal",
  "Enquiry",
  "inquiry",
  "Wood",
  "wood",
  "Palette",
  "palette",
  "H-",
  "h-",
  "X-",
  "32",
  "B-",
  "b-",
  "L-",
  "l-",
  "142",
  "picked",
  "2630",
  "630",
  "Taastrup",
  "taastrup",
  "rup",
  "DENMARK",
  "denmark",
  "ARK",
  "consignee",
  "nee",
  "San",
  "san",
  "Antonio",
  "antonio",
  "nio",
  "TX",
  "tx",
  "78227",
  "227",
  "1301",
  "301",
  "shipped",
  "ped",
  "besis",
  "sis",
  "H-112",
  "h-112",
  "112",
  "X-ddd",
  "296",
  "06536",
  "536",
  "S\u00cc_dharz",
  "s\u00ec_dharz",
  "arz",
  "XX_xxxx",
  "Germany",
  "germany",
  "att",
  "ready",
  "picke",
  "cke",
  "time",
  "ime",
  "Brgd",
  "brgd",
  "rgd",
  "FnB.",
  "fnb.",
  "nB.",
  "XxX.",
  "empty",
  "pty",
  "cans",
  "ans",
  "lids",
  "ids",
  "covers",
  "Austin",
  "austin",
  "tin",
  "Texas",
  "texas",
  "xas",
  "Singapore",
  "singapore",
  "currently",
  "sizes",
  "zes",
  "ose",
  "combined",
  "weigh",
  "less",
  "take",
  "ake",
  "space",
  "ace",
  "\u0089\u00db\u00a2",
  "\u0089\u00fb\u00a2",
  "\u0089X\u00a2",
  "56x44x56",
  "x56",
  "LBS",
  "arrive",
  "first",
  "rst",
  "december",
  "2018",
  "018",
  "future",
  "ure",
  "batches",
  "advice",
  "options",
  "Colleagues",
  "colleagues",
  "ues",
  "pls",
  "JFK",
  "jfk",
  "BELCHERTOWN",
  "belchertown",
  "OWN",
  "01007",
  "007",
  "MA",
  "ma",
  "piece",
  "ece",
  "Dms",
  "dms",
  "77x48x18",
  "x18",
  "Commodity\u00ca",
  "commodity\u00ea",
  "ty\u00ca",
  "XxxxxX",
  "Cannabis",
  "cannabis",
  "bis",
  "seeds",
  "eds",
  "Agricultural",
  "agricultural",
  "ral",
  "certificate",
  "along",
  "ong",
  "Pls",
  "2x",
  "30",
  "tea",
  "chest",
  "43",
  "41",
  "Munich",
  "munich",
  "christchurch",
  "rch",
  "zealand",
  "FOB",
  "fob",
  "Haiphong",
  "haiphong",
  "Delivered",
  "Ex",
  "ex",
  "22/04",
  "/04",
  "dd/dd",
  "Required",
  "required",
  "29/04",
  "69",
  "tns",
  "40",
  "875kgs",
  "Duties",
  "duties",
  "ies",
  "unpaid",
  "Pickup",
  "West",
  "Valley",
  "valley",
  "ley",
  "UT",
  "ut",
  "84128",
  "128",
  "Dock",
  "dock",
  "Hours",
  "0930",
  "930",
  "1530",
  "530",
  "MDT",
  "mdt",
  "Doors",
  "doors",
  "ors",
  "northeast",
  "side",
  "building",
  "Gyeong",
  "gyeong",
  "12249",
  "249",
  "216893",
  "893",
  "767",
  "40x48x66",
  "x66",
  "Cases-32",
  "cases-32",
  "-32",
  "Xxxxx-dd",
  "Cecilia",
  "cecilia",
  "Figueroa",
  "figueroa",
  "roa",
  "801.226.0747",
  "747",
  "ddd.ddd.dddd",
  "5042",
  "042",
  "manager@companyA.com",
  "manager@companya.com",
  "Zip",
  "zip",
  "Z",
  "Postal",
  "postal",
  "498782",
  "782",
  "describe",
  "ibe",
  "nature",
  "kindly",
  "dly",
  "rates",
  "charges",
  "Yangon",
  "yangon",
  "Sanchung",
  "sanchung",
  "ung",
  "Townshp",
  "townshp",
  "shp",
  "ctn",
  "gw",
  "53kgs",
  "ddxxx",
  "52",
  "38",
  "33",
  "x2",
  "10pcs",
  "turning",
  "catalogues",
  "catalogs",
  "rotating",
  "guys",
  "uys",
  "SPX",
  "spx",
  "Known",
  "Consignor",
  "consignor",
  "nor",
  "AIR",
  "Express",
  "express",
  "Aviation",
  "aviation",
  "Classic",
  "classic",
  "sic",
  "issues",
  "aware",
  "Kaunas",
  "kaunas",
  "nas",
  "Lithuania",
  "lithuania",
  "nia",
  "LT-48244",
  "lt-48244",
  "244",
  "XX-dddd",
  "carton",
  "49",
  "39",
  "Leighton",
  "leighton",
  "Buzzard",
  "buzzard",
  "Bedfordshire",
  "bedfordshire",
  "LU7",
  "lu7",
  "4QE",
  "4qe",
  "follows",
  "ows",
  "Bridgend",
  "bridgend",
  "CF32",
  "cf32",
  "F32",
  "9BS",
  "9bs",
  "Calcutta",
  "calcutta",
  "tta",
  "CCU",
  "ccu",
  "plt",
  "210x110x100",
  "100",
  "dddxdddxddd",
  "CMS",
  "406",
  "KGS",
  "ELECTRICAL",
  "electrical",
  "CAL",
  "MATERIALS",
  "ALS",
  "Non",
  "Hazardous",
  "hazardous",
  "ous",
  "Kolkota",
  "kolkota",
  "ota",
  "700071",
  "071"
]